aeidon==1.9
analyzebd==1.1.220510
appdirs==1.4.4
argparse==1.4.0
asteval==0.9.26
attrs==20.3.0
autobahn==17.10.1
automat==20.2.0
backcall==0.2.0
bcrypt==3.1.7
beautifulsoup4==4.9.3
bottleneck==1.2.1
brlapi==0.8.2
brotli==1.0.9
cbor==1.0.0
certifi==2020.6.20
chardet==4.0.0
chrome-gnome-shell==0.0.0
click==7.1.2
colorama==0.4.4
configargparse==1.2.3
constantly==15.1.0
cryptography==3.3.2
cupshelpers==1.0
cycler==0.10.0
cython==0.29.21
dblatex==0.3.12
dbus-python==1.2.16
decorator==4.4.2
defusedxml==0.6.0
diff-match-patch==20200713
distlib==0.3.1
distro-info==1.0
distro==1.5.0
et-xmlfile==1.0.1
fail2ban==0.11.2
feedparser==5.2.1
file-read-backwards==2.0.0
filelock==3.0.12
fonttools==4.29.1
fuse-python==1.0.2
future==0.18.2
gdal==3.2.2
gpg==1.14.0-unknown
guake==3.6.3
h5py.-debian-h5py-serial==2.10.0
h5py==3.6.0
html5lib==1.1
httplib2==0.18.1
hyperlink==19.0.0
idna==2.10
importlib-metadata==1.6.0
incremental==17.5.0
iniconfig==0.0.0
iniparse==0.4
ipython-genutils==0.2.0
ipython==7.20.0
jdcal==1.0
jedi==0.18.0
jinja2==2.11.3
kiwisolver==1.3.1
llvmlite==0.35.0
lmfit==1.0.3
louis==3.16.0
lxml==4.6.3
lz4==3.1.3+dfsg
mako==1.1.3
markupsafe==1.1.1
matplotlib==3.5.1
mercurial==5.6.1
metaconfig==0.1.4a1
mock==4.0.3
more-itertools==4.2.0
mpi4py==3.0.3
mpmath==0.0.0
musicbrainzngs==0.7.1
mutagen==1.45.1
networkx==2.5
numba==0.52.0
numexpr==2.7.2
numpy==1.19.5
odfpy==1.4.1
olefile==0.46
openpyxl==3.0.3
packaging==20.9
pandas==1.4.0
parso==0.8.1
pathlib==1.0.1
patsy==0.5.1
pbr==5.5.0
pexpect==4.8.0
phply==1.2.5
pickleshare==0.7.5
pillow==8.1.2
pip==20.3.4
pluggy==0.13.0
ply==3.11
prompt-toolkit==3.0.14
psutil==5.8.0
py-ubjson==0.16.1
py==1.10.0
pyasn1-modules==0.2.1
pyasn1==0.4.8
pycairo==1.16.2
pycountry==20.7.3
pycryptodomex==3.9.7
pycups==2.0.1
pycurl==7.43.0.6
pydot==1.4.2
pyenchant==3.2.0
pygments==2.7.1
pygobject==3.38.0
pygraphviz==1.7
pyhamcrest==1.9.0
pyinotify==0.9.6
pylibacl==0.6.0
pymongo==3.11.0
pynacl==1.4.0
pyopenssl==20.0.1
pyparsing==2.4.7
pypng==0.0.20
pyqrcode==1.2.1
pyqt5-sip==12.8.1
pyqt5==5.15.2
pysimplesoap==1.16.2
pysmbc==1.0.23
pyte==0.8.0
pytest==6.0.2
python-apt==2.2.1
python-dateutil==2.8.1
python-debian==0.1.39
python-debianbts==3.1.0
python-levenshtein==0.12.2
python-snappy==0.5.3
pytrie==0.2
pytz==2021.1
pyxattr==0.7.2
pyxdg==0.27
pyyaml==5.3.1
qtpy==1.9.0
quodlibet==4.3.0
reportbug==7.10.3+deb11u1
reportlab==3.5.59
requests==2.25.1
ruamel.yaml.clib==0.2.2
ruamel.yaml==0.16.12
scipy==1.8.0
scour==0.38.2
seaborn==0.11.1
service-identity==18.1.0
setuptools==52.0.0
simplejson==3.17.2
six==1.16.0
soupsieve==2.2.1
src==1.0
sympy==1.7.1
systemd-python==234
tables==3.6.1
toml==0.10.1
tornado==6.1
tqdm==4.62.3
traitlets==5.0.5
translate-toolkit==3.3.2
twisted==20.3.0
txaio==20.4.1
u-msgpack-python==2.3.0
unattended-upgrades==0.1
uncertainties==3.1.6
urllib3==1.26.5
virtualenv==20.4.0+ds
vobject==0.9.6.1
wcwidth==0.1.9
webencodings==0.5.1
websockets==8.1
wheel==0.34.2
wsaccel==0.6.2
xdg==5
xlwt==1.3.0
yt-dlp==2022.4.8
zipp==1.0.0
zope.interface==5.2.0
